MA7419 Fundamental Of Data Science - Coursework 2, 2025/26 , Group 44
…
cat("\n=== Decade-Average Renewables Share (BRICS) ===\n")

=== Decade-Average Renewables Share (BRICS) ===

print(
  brics_decade %>%
    arrange(country, decade) %>%
    mutate(
      renewables_share_mean = round(renewables_share_mean, 1),
      renewables_twh_mean   = round(renewables_twh_mean, 1)
    )
)

# A tibble: 33 × 4
   country decade renewables_share_mean renewables_twh_mean
   <chr>    <dbl>                 <dbl>               <dbl>
 1 Brazil    1960                  25.5                14.6
 2 Brazil    1970                  26.9                73.5
 3 Brazil    1980                  39.7               170. 
 4 Brazil    1990                  43.1               257. 
 5 Brazil    2000                  40.8               345  
 6 Brazil    2010                  41.2               460. 
 7 Brazil    2020                  47.4               582. 
 8 China     1960                   3.8                11  
 9 China     1970                   3                  39  
10 China     1980                   4.1                88.6
# ℹ 23 more rows
…
